Chapter 5 Linear regression | Using R for social research
…
pivot_all_longer <- function(.data) {
  .data %>%
    pivot_longer(cols      = everything(),
                 names_to  = "variable",
                 values_to = "value") %>%
    group_by(variable)
}

Here it is in action, applied only to numeric variables:

dat %>%
  select(where(is.numeric)) %>%
  pivot_all_longer

## # A tibble: 510 x 2
## # Groups:   variable [5]
##    variable        value
##    <chr>           <dbl>
##  1 education       13.1 
##  2 income       12351   
##  3 women           11.2 
##  4 prestige        68.8 
##  5 income_1000s    12.4 
##  6 education       12.3 
##  7 income       25879   
##  8 women            4.02
##  9 prestige        69.1 
## 10 income_1000s    25.9 
## # ... with 500 more rows
…
