Chapter 8 Mediation analysis | Using R for social research (v0.11)
…
dat <- dat %>%
  mutate(treat_group = dplyr::recode(treat_group,
                                       `1` = "Intervention",
                                       `0` = "Control")) %>%
  mutate(treat_group = as.factor(treat_group))
dat

## # A tibble: 200 x 4
##    savings_start treat_group  money_received savings_end
##            <dbl> <fct>                 <dbl>       <dbl>
##  1         7742. Control                500.       8359.
##  2         3871. Intervention          2004.       5923.
##  3         5726. Intervention          2000.       7226.
##  4         6266. Control                504.       6351.
##  5         5809. Intervention          1999.       7308.
##  6         4788. Control                500.       4787.
##  7         8023. Intervention          2002.       9525.
##  8         4811. Control                505.       4816.
##  9         9037. Control                494.       9031.
## 10         4875. Control                500.       5376.
## # ... with 190 more rows
…
